{
  "items" : [ {
    "album" : {
      "album_type" : "ALBUM",
      "external_urls" : {
        "spotify" : "https://open.spotify.com/album/6YVSzU89AisNDfVK4HUt69"
      },
      "href" : "https://api.spotify.com/v1/albums/6YVSzU89AisNDfVK4HUt69",
      "id" : "6YVSzU89AisNDfVK4HUt69",
      "images" : [ {
        "height" : 640,
        "url" : "https://i.scdn.co/image/d5e98d7ec69f04377b8812a7f441c490a7666c20",
        "width" : 640
      }],
      "name" : "The Dethalbum",
      "type" : "album",
      "uri" : "spotify:album:6YVSzU89AisNDfVK4HUt69"
    },
    "artists" : [ {
      "external_urls" : {
        "spotify" : "https://open.spotify.com/artist/7u12AuhJ5AaJIgZAZe0US8"
      },
      "href" : "https://api.spotify.com/v1/artists/7u12AuhJ5AaJIgZAZe0US8",
      "id" : "7u12AuhJ5AaJIgZAZe0US8",
      "name" : "Metalocalypse: Dethklok",
      "type" : "artist",
      "uri" : "spotify:artist:7u12AuhJ5AaJIgZAZe0US8"
    } ],
    "disc_number" : 1,
    "duration_ms" : 165893,
    "explicit" : false,
    "external_ids" : {
      "isrc" : "USYWT0700028"
    },
    "external_urls" : {
      "spotify" : "https://open.spotify.com/track/7eZbzL7QD69KAbOygX39lr"
    },
    "href" : "https://api.spotify.com/v1/tracks/7eZbzL7QD69KAbOygX39lr",
    "id" : "7eZbzL7QD69KAbOygX39lr",
    "is_playable" : true,
    "name" : "Thunderhorse",
    "popularity" : 45,
    "preview_url" : "https://p.scdn.co/mp3-preview/5569c832cc14d92bc1dcfb25aef627b753af66d9",
    "track_number" : 9,
    "type" : "track",
    "uri" : "spotify:track:7eZbzL7QD69KAbOygX39lr"
  }],
  "total" : 50,
  "limit" : 20,
  "offset" : 0,
  "href" : "https://api.spotify.com/v1/me/top/tracks",
  "previous" : null,
  "next" : "https://api.spotify.com/v1/me/top/tracks?limit=20&offset=20"
}